{
    "apiVersion": "opentestfactory.org/v1alpha1",
    "kind": "Workflow",
    "metadata": {
      "name": "Mon peac"
    },
    "defaults": {
      "runs-on": "junit"
    },
    "jobs": {
      "explicitJob": {
        "runs-on": "junit",
        "generator": "tm.squashtest.org/tm.generator@v1",
        "with": {
          "testPlanUuid": "96dd6d34-f0ff-4409-b8ac-99796e5384ac",
          "testPlanType": "Iteration",
          "squashTMUrl": "http://172.25.160.1:8080/squash",
          "squashTMAutomatedServerLogin": "jenkins",
          "squashTMAutomatedServerPassword": "jenkins"
        }
      }
    }
  }
  